<?xml version="1.0" encoding="UTF-8"?>
<svg width="23px" height="30px" viewBox="0 0 23 30" version="1.1" xmlns="http://www.w3.org/2000/svg" xmlns:xlink="http://www.w3.org/1999/xlink">
    <!-- Generator: Sketch 60.1 (88133) - https://sketch.com -->
    <title>&gt;</title>
    <desc>Created with Sketch.</desc>
    <g id="Page-1" stroke="none" stroke-width="1" fill="none" fill-rule="evenodd">
        <g id="TM-Finance" transform="translate(-1367.000000, -1911.000000)" fill="#FFA32F" fill-rule="nonzero">
            <g id="Group-4" transform="translate(51.000000, 1785.000000)">
                <g id="Group-2-Copy">
                    <polygon id="&gt;" transform="translate(1327.500000, 140.906555) rotate(-360.000000) translate(-1327.500000, -140.906555) " points="1316 128.981311 1319.83333 126 1339 140.906555 1319.83333 155.81311 1316 152.831799 1331.21354 140.906555"></polygon>
                </g>
            </g>
        </g>
    </g>
</svg>