<svg xmlns="http://www.w3.org/2000/svg" width="15" height="15" viewBox="0 0 15 15">
  <g id="Rectangle_134" data-name="Rectangle 134" fill="#fff" stroke="#808080" stroke-width="1">
    <rect width="15" height="15" stroke="none"/>
    <rect x="0.5" y="0.5" width="14" height="14" fill="none"/>
  </g>
</svg>
