<?xml version="1.0" encoding="UTF-8"?>
<svg width="51px" height="9px" viewBox="0 0 51 9" version="1.1" xmlns="http://www.w3.org/2000/svg" xmlns:xlink="http://www.w3.org/1999/xlink">
    <!-- Generator: Sketch 60.1 (88133) - https://sketch.com -->
    <title>Rectangle</title>
    <desc>Created with Sketch.</desc>
    <g id="Page-1" stroke="none" stroke-width="1" fill="none" fill-rule="evenodd">
        <g id="TM-Why-Trust" transform="translate(-236.000000, -497.000000)" fill="#FFA32F">
            <g id="Group-10" transform="translate(236.000000, 497.000000)">
                <polygon id="Rectangle" points="7.56232687 0 51 0 43.4376731 9 0 9"></polygon>
            </g>
        </g>
    </g>
</svg>